%YAML 1.1
%TAG !u! tag:unity3d.com,2011:
--- !u!1001 &8247070645529151057
PrefabInstance:
  m_ObjectHideFlags: 0
  serializedVersion: 2
  m_Modification:
    m_TransformParent: {fileID: 0}
    m_Modifications:
    - target: {fileID: 4554248982779803004, guid: 3b3b2a7b2bc55a2468b9c8a7a2794481,
        type: 3}
      propertyPath: m_Sprite
      value: 
      objectReference: {fileID: 3725304124624780468, guid: 86873f6cca634484d86164ce2f88e50d,
        type: 3}
    - target: {fileID: 4554248982779803005, guid: 3b3b2a7b2bc55a2468b9c8a7a2794481,
        type: 3}
      propertyPath: m_LocalScale.x
      value: 6
      objectReference: {fileID: 0}
    - target: {fileID: 4554248982779803005, guid: 3b3b2a7b2bc55a2468b9c8a7a2794481,
        type: 3}
      propertyPath: m_LocalScale.y
      value: 6
      objectReference: {fileID: 0}
    - target: {fileID: 4554248983690135022, guid: 3b3b2a7b2bc55a2468b9c8a7a2794481,
        type: 3}
      propertyPath: m_Sprite
      value: 
      objectReference: {fileID: 3725304124624780468, guid: 86873f6cca634484d86164ce2f88e50d,
        type: 3}
    - target: {fileID: 4554248983690135023, guid: 3b3b2a7b2bc55a2468b9c8a7a2794481,
        type: 3}
      propertyPath: m_LocalScale.x
      value: 6
      objectReference: {fileID: 0}
    - target: {fileID: 4554248983690135023, guid: 3b3b2a7b2bc55a2468b9c8a7a2794481,
        type: 3}
      propertyPath: m_LocalScale.y
      value: 6
      objectReference: {fileID: 0}
    - target: {fileID: 4554248984119036979, guid: 3b3b2a7b2bc55a2468b9c8a7a2794481,
        type: 3}
      propertyPath: m_Sprite
      value: 
      objectReference: {fileID: 3725304124624780468, guid: 86873f6cca634484d86164ce2f88e50d,
        type: 3}
    - target: {fileID: 4554248984119036988, guid: 3b3b2a7b2bc55a2468b9c8a7a2794481,
        type: 3}
      propertyPath: m_LocalPosition.x
      value: 0
      objectReference: {fileID: 0}
    - target: {fileID: 4554248984119036988, guid: 3b3b2a7b2bc55a2468b9c8a7a2794481,
        type: 3}
      propertyPath: m_LocalPosition.y
      value: -1
      objectReference: {fileID: 0}
    - target: {fileID: 4554248984119036988, guid: 3b3b2a7b2bc55a2468b9c8a7a2794481,
        type: 3}
      propertyPath: m_LocalScale.x
      value: 6
      objectReference: {fileID: 0}
    - target: {fileID: 4554248984119036988, guid: 3b3b2a7b2bc55a2468b9c8a7a2794481,
        type: 3}
      propertyPath: m_LocalScale.y
      value: 6
      objectReference: {fileID: 0}
    - target: {fileID: 4554248984617326713, guid: 3b3b2a7b2bc55a2468b9c8a7a2794481,
        type: 3}
      propertyPath: m_Sprite
      value: 
      objectReference: {fileID: 3725304124624780468, guid: 86873f6cca634484d86164ce2f88e50d,
        type: 3}
    - target: {fileID: 4554248984617326714, guid: 3b3b2a7b2bc55a2468b9c8a7a2794481,
        type: 3}
      propertyPath: m_LocalPosition.x
      value: -1
      objectReference: {fileID: 0}
    - target: {fileID: 4554248984617326714, guid: 3b3b2a7b2bc55a2468b9c8a7a2794481,
        type: 3}
      propertyPath: m_LocalPosition.y
      value: -1
      objectReference: {fileID: 0}
    - target: {fileID: 4554248984617326714, guid: 3b3b2a7b2bc55a2468b9c8a7a2794481,
        type: 3}
      propertyPath: m_LocalScale.x
      value: 6
      objectReference: {fileID: 0}
    - target: {fileID: 4554248984617326714, guid: 3b3b2a7b2bc55a2468b9c8a7a2794481,
        type: 3}
      propertyPath: m_LocalScale.y
      value: 6
      objectReference: {fileID: 0}
    - target: {fileID: 4554248984689996968, guid: 3b3b2a7b2bc55a2468b9c8a7a2794481,
        type: 3}
      propertyPath: m_LocalPosition.x
      value: 0
      objectReference: {fileID: 0}
    - target: {fileID: 4554248984689996968, guid: 3b3b2a7b2bc55a2468b9c8a7a2794481,
        type: 3}
      propertyPath: m_LocalPosition.y
      value: 0
      objectReference: {fileID: 0}
    - target: {fileID: 4554248984689996968, guid: 3b3b2a7b2bc55a2468b9c8a7a2794481,
        type: 3}
      propertyPath: m_LocalPosition.z
      value: 0
      objectReference: {fileID: 0}
    - target: {fileID: 4554248984689996968, guid: 3b3b2a7b2bc55a2468b9c8a7a2794481,
        type: 3}
      propertyPath: m_LocalRotation.x
      value: 0
      objectReference: {fileID: 0}
    - target: {fileID: 4554248984689996968, guid: 3b3b2a7b2bc55a2468b9c8a7a2794481,
        type: 3}
      propertyPath: m_LocalRotation.y
      value: 0
      objectReference: {fileID: 0}
    - target: {fileID: 4554248984689996968, guid: 3b3b2a7b2bc55a2468b9c8a7a2794481,
        type: 3}
      propertyPath: m_LocalRotation.z
      value: 0
      objectReference: {fileID: 0}
    - target: {fileID: 4554248984689996968, guid: 3b3b2a7b2bc55a2468b9c8a7a2794481,
        type: 3}
      propertyPath: m_LocalRotation.w
      value: 1
      objectReference: {fileID: 0}
    - target: {fileID: 4554248984689996968, guid: 3b3b2a7b2bc55a2468b9c8a7a2794481,
        type: 3}
      propertyPath: m_RootOrder
      value: 0
      objectReference: {fileID: 0}
    - target: {fileID: 4554248984689996968, guid: 3b3b2a7b2bc55a2468b9c8a7a2794481,
        type: 3}
      propertyPath: m_LocalEulerAnglesHint.x
      value: 0
      objectReference: {fileID: 0}
    - target: {fileID: 4554248984689996968, guid: 3b3b2a7b2bc55a2468b9c8a7a2794481,
        type: 3}
      propertyPath: m_LocalEulerAnglesHint.y
      value: 0
      objectReference: {fileID: 0}
    - target: {fileID: 4554248984689996968, guid: 3b3b2a7b2bc55a2468b9c8a7a2794481,
        type: 3}
      propertyPath: m_LocalEulerAnglesHint.z
      value: 0
      objectReference: {fileID: 0}
    - target: {fileID: 4554248984689996970, guid: 3b3b2a7b2bc55a2468b9c8a7a2794481,
        type: 3}
      propertyPath: m_Name
      value: Tetramino_J
      objectReference: {fileID: 0}
    - target: {fileID: 4554248984689996970, guid: 3b3b2a7b2bc55a2468b9c8a7a2794481,
        type: 3}
      propertyPath: m_IsActive
      value: 1
      objectReference: {fileID: 0}
    m_RemovedComponents: []
  m_SourcePrefab: {fileID: 100100000, guid: 3b3b2a7b2bc55a2468b9c8a7a2794481, type: 3}
